VIVADO_MIN_EXAMPLE/logs/axi_lite_regfile_tb.vcd
$date
   Thu Apr 30 15:08:17 2026
$end
$version
  2022.2
$end
$timescale
  1ps
$end
$scope module axi_lite_regfile_tb $end
$var reg 1 ! aclk $end
$var reg 1 " aresetn $end
$var reg 32 # awaddr [31:0] $end
$var reg 1 $ awvalid $end
$var wire 1 % awready $end
$var reg 32 & wdata [31:0] $end
$var reg 4 ' wstrb [3:0] $end
$var reg 1 ( wvalid $end
$var wire 1 ) wready $end
$var wire 2 * bresp [1:0] $end
$var wire 1 + bvalid $end
$var reg 1 , bready $end
$var reg 32 - araddr [31:0] $end
$var reg 1 . arvalid $end
$var wire 1 / arready $end
$var wire 32 0 rdata [31:0] $end
$var wire 2 1 rresp [1:0] $end
$var wire 1 2 rvalid $end
$var reg 1 3 rready $end
$var reg 32 4 pass_count [31:0] $end
$var reg 32 5 fail_count [31:0] $end
$var reg 2 6 last_bresp [1:0] $end
$var reg 2 7 last_rresp [1:0] $end
$var reg 32 8 rd [31:0] $end
$scope module dut $end
$var wire 1 9 aclk $end
$var wire 1 : aresetn $end
$var wire 32 ; awaddr [31:0] $end
$var wire 1 < awvalid $end
$var reg 1 = awready $end
$var wire 32 > wdata [31:0] $end
$var wire 4 ? wstrb [3:0] $end
$var wire 1 @ wvalid $end
$var reg 1 A wready $end
$var reg 2 B bresp [1:0] $end
$var reg 1 C bvalid $end
$var wire 1 D bready $end
$var wire 32 E araddr [31:0] $end
$var wire 1 F arvalid $end
$var reg 1 G arready $end
$var reg 32 H rdata [31:0] $end
$var reg 2 I rresp [1:0] $end
$var reg 1 J rvalid $end
$var wire 1 K rready $end
$var reg 2 L wstate [1:0] $end
$var reg 32 M aw_latch [31:0] $end
$var reg 32 N wd_latch [31:0] $end
$var reg 4 O ws_latch [3:0] $end
$var integer 32 P i [31:0] $end
$var reg 1 Q rstate $end
$scope task do_write $end
$var reg 2 R idx [1:0] $end
$var reg 32 S d [31:0] $end
$var reg 4 T s [3:0] $end
$upscope $end
$upscope $end
$scope begin Block334_4 $end
$var reg 32 U i [31:0] $end
$upscope $end
$scope begin Block345_5 $end
$var reg 32 V i [31:0] $end
$upscope $end
$scope begin Block358_6 $end
$var reg 32 W i [31:0] $end
$upscope $end
$scope begin Block362_7 $end
$var reg 32 X i [31:0] $end
$upscope $end
$scope begin Block373_8 $end
$var reg 32 Y i [31:0] $end
$upscope $end
$scope task axi_write $end
$var reg 32 Z addr [31:0] $end
$var reg 32 [ data [31:0] $end
$var reg 4 \ wstrb_in [3:0] $end
$var reg 32 ] timeout [31:0] $end
$upscope $end
$scope task axi_write_aw_first $end
$var reg 32 Z addr [31:0] $end
$var reg 32 [ data [31:0] $end
$var reg 4 \ wstrb_in [3:0] $end
$var reg 32 ] timeout [31:0] $end
$upscope $end
$scope task axi_write_w_first $end
$var reg 32 Z addr [31:0] $end
$var reg 32 [ data [31:0] $end
$var reg 4 \ wstrb_in [3:0] $end
$var reg 32 ] timeout [31:0] $end
$upscope $end
$scope task axi_read $end
$var reg 32 Z addr [31:0] $end
$var reg 32 [ rd [31:0] $end
$var reg 32 ^ timeout [31:0] $end
$upscope $end
$scope task axi_write_bp $end
$var reg 32 Z addr [31:0] $end
$var reg 32 [ data [31:0] $end
$var reg 4 \ wstrb_in [3:0] $end
$var reg 32 ] bp_cycles [31:0] $end
$var reg 32 _ timeout [31:0] $end
$upscope $end
$scope task axi_read_bp $end
$var reg 32 Z addr [31:0] $end
$var reg 32 [ rd [31:0] $end
$var reg 32 ^ bp_cycles [31:0] $end
$var reg 32 ] timeout [31:0] $end
$upscope $end
$scope task check_eq $end
$var reg 32 Z got [31:0] $end
$var reg 32 [ exp [31:0] $end
$var reg 32 ^ label $end
$upscope $end
$scope task check_resp $end
$var reg 2 ` got [1:0] $end
$var reg 2 a exp [1:0] $end
$var reg 32 ^ label $end
$upscope $end
$upscope $end
$enddefinitions $end
#0
$dumpvars
0!
0"
b0 #
0$
1%
b0 &
b0 '
0(
1)
b0 *
0+
0,
b0 -
0.
1/
b0 0
b0 1
02
03
b0 4
b0 5
bx 6
bx 7
bx 8
09
0:
b0 ;
0<
1=
b0 >
b0 ?
0@
1A
b0 B
0C
0D
b0 E
0F
1G
b0 H
b0 I
0J
0K
b0 L
bx M
bx N
bx O
bx P
0Q
bx R
bx S
bx T
b0 U
b0 V
b0 W
b0 X
b0 Y
b0 Z
b0 [
b0 \
b0 ]
b0 ^
b0 _
b0 `
b0 a
$end
#5000
1!
19
#10000
0!
09
#15000
1!
19
#20000
0!
09
#25000
1!
19
#30000
0!
09
#35000
1!
19
#40000
0!
09
#45000
1!
19
#50000
0!
09
#55000
1!
19
#60000
0!
09
#65000
1!
19
#70000
0!
09
#75000
1!
1"
19
1:
#80000
0!
09
#85000
1!
19
#90000
0!
09
#95000
1!
19
#100000
0!
b0 -
1.
09
1F
#105000
1!
0/
12
19
0G
1J
1Q
#110000
0!
0.
13
09
0F
1K
#115000
1!
1/
02
b0 7
19
1G
0J
0Q
#120000
0!
03
b10 4
b0 8
09
0K
b1 U
#125000
1!
19
#130000
0!
b100 -
1.
09
b100 E
1F
#135000
1!
0/
12
19
0G
1J
1Q
#140000
0!
0.
13
09
0F
1K
#145000
1!
1/
02
19
1G
0J
0Q
#150000
0!
03
b100 4
09
0K
b10 U
#155000
1!
19
#160000
0!
b1000 -
1.
09
b1000 E
1F
#165000
1!
0/
12
19
0G
1J
1Q
#170000
0!
0.
13
09
0F
1K
#175000
1!
1/
02
19
1G
0J
0Q
#180000
0!
03
b110 4
09
0K
b11 U
#185000
1!
19
#190000
0!
b1100 -
1.
09
b1100 E
1F
#195000
1!
0/
12
19
0G
1J
1Q
#200000
0!
0.
13
09
0F
1K
#205000
1!
1/
02
19
1G
0J
0Q
#210000
0!
03
b1000 4
09
0K
b100 U
#215000
1!
19
#220000
0!
b0 #
1$
b11111111111111111111111111111111 &
b1111 '
1(
09
1<
b11111111111111111111111111111111 >
b1111 ?
1@
#225000
1!
0%
0)
1+
19
0=
0A
1C
b11 L
b0 R
b11111111111111111111111111111111 S
b1111 T
#230000
0!
0$
0(
1,
09
0<
0@
1D
#235000
1!
1%
1)
0+
b0 6
19
1=
1A
0C
b0 L
#240000
0!
0,
b1001 4
09
0D
#245000
1!
19
#250000
0!
b0 -
1.
09
b0 E
1F
#255000
1!
0/
b11111111111111111111111111111111 0
12
19
0G
b11111111111111111111111111111111 H
1J
1Q
#260000
0!
0.
13
09
0F
1K
#265000
1!
1/
02
19
1G
0J
0Q
#270000
0!
03
b1011 4
b11111111111111111111111111111111 8
09
0K
b1 V
#275000
1!
19
#280000
0!
b100 #
1$
b11111111111111111111111111111111 &
b1111 '
1(
09
b100 ;
1<
1@
#285000
1!
0%
0)
1+
19
0=
0A
1C
b11 L
b1 R
#290000
0!
0$
0(
1,
09
0<
0@
1D
#295000
1!
1%
1)
0+
19
1=
1A
0C
b0 L
#300000
0!
0,
b1100 4
09
0D
#305000
1!
19
#310000
0!
b100 -
1.
09
b100 E
1F
#315000
1!
0/
12
19
0G
1J
1Q
#320000
0!
0.
13
09
0F
1K
#325000
1!
1/
02
19
1G
0J
0Q
#330000
0!
03
b1110 4
09
0K
b10 V
#335000
1!
19
#340000
0!
b1000 #
1$
b11111111111111111111111111111111 &
b1111 '
1(
09
b1000 ;
1<
1@
#345000
1!
0%
0)
1+
19
0=
0A
1C
b11 L
b10 R
#350000
0!
0$
0(
1,
09
0<
0@
1D
#355000
1!
1%
1)
0+
19
1=
1A
0C
b0 L
#360000
0!
0,
b1111 4
09
0D
#365000
1!
19
#370000
0!
b1000 -
1.
09
b1000 E
1F
#375000
1!
0/
12
19
0G
1J
1Q
#380000
0!
0.
13
09
0F
1K
#385000
1!
1/
02
19
1G
0J
0Q
#390000
0!
03
b10001 4
09
0K
b11 V
#395000
1!
19
#400000
0!
b1100 #
1$
b11111111111111111111111111111111 &
b1111 '
1(
09
b1100 ;
1<
1@
#405000
1!
0%
0)
1+
19
0=
0A
1C
b11 L
b11 R
#410000
0!
0$
0(
1,
09
0<
0@
1D
#415000
1!
1%
1)
0+
19
1=
1A
0C
b0 L
#420000
0!
0,
b10010 4
09
0D
#425000
1!
19
#430000
0!
b1100 -
1.
09
b1100 E
1F
#435000
1!
0/
12
19
0G
1J
1Q
#440000
0!
0.
13
09
0F
1K
#445000
1!
1/
02
19
1G
0J
0Q
#450000
0!
03
b10100 4
09
0K
b100 V
#455000
1!
19
#460000
0!
b0 #
1$
b10100101101001010000000000000000 &
b1111 '
1(
09
b0 ;
1<
b10100101101001010000000000000000 >
1@
#465000
1!
0%
0)
1+
19
0=
0A
1C
b11 L
b0 R
b10100101101001010000000000000000 S
#470000
0!
0$
0(
1,
09
0<
0@
1D
#475000
1!
1%
1)
0+
19
1=
1A
0C
b0 L
#480000
0!
0,
b10101 4
09
0D
b1 W
#485000
1!
19
#490000
0!
b100 #
1$
b10100101101001010000000000000001 &
b1111 '
1(
09
b100 ;
1<
b10100101101001010000000000000001 >
1@
#495000
1!
0%
0)
1+
19
0=
0A
1C
b11 L
b1 R
b10100101101001010000000000000001 S
#500000
0!
0$
0(
1,
09
0<
0@
1D
#505000
1!
1%
1)
0+
19
1=
1A
0C
b0 L
#510000
0!
0,
b10110 4
09
0D
b10 W
#515000
1!
19
#520000
0!
b1000 #
1$
b10100101101001010000000000000010 &
b1111 '
1(
09
b1000 ;
1<
b10100101101001010000000000000010 >
1@
#525000
1!
0%
0)
1+
19
0=
0A
1C
b11 L
b10 R
b10100101101001010000000000000010 S
#530000
0!
0$
0(
1,
09
0<
0@
1D
#535000
1!
1%
1)
0+
19
1=
1A
0C
b0 L
#540000
0!
0,
b10111 4
09
0D
b11 W
#545000
1!
19
#550000
0!
b1100 #
1$
b10100101101001010000000000000011 &
b1111 '
1(
09
b1100 ;
1<
b10100101101001010000000000000011 >
1@
#555000
1!
0%
0)
1+
19
0=
0A
1C
b11 L
b11 R
b10100101101001010000000000000011 S
#560000
0!
0$
0(
1,
09
0<
0@
1D
#565000
1!
1%
1)
0+
19
1=
1A
0C
b0 L
#570000
0!
0,
b11000 4
09
0D
b100 W
#575000
1!
19
#580000
0!
b0 -
1.
09
b0 E
1F
#585000
1!
0/
b10100101101001010000000000000000 0
12
19
0G
b10100101101001010000000000000000 H
1J
1Q
#590000
0!
0.
13
09
0F
1K
#595000
1!
1/
02
19
1G
0J
0Q
#600000
0!
03
b11010 4
b10100101101001010000000000000000 8
09
0K
b1 X
#605000
1!
19
#610000
0!
b100 -
1.
09
b100 E
1F
#615000
1!
0/
b10100101101001010000000000000001 0
12
19
0G
b10100101101001010000000000000001 H
1J
1Q
#620000
0!
0.
13
09
0F
1K
#625000
1!
1/
02
19
1G
0J
0Q
#630000
0!
03
b11100 4
b10100101101001010000000000000001 8
09
0K
b10 X
#635000
1!
19
#640000
0!
b1000 -
1.
09
b1000 E
1F
#645000
1!
0/
b10100101101001010000000000000010 0
12
19
0G
b10100101101001010000000000000010 H
1J
1Q
#650000
0!
0.
13
09
0F
1K
#655000
1!
1/
02
19
1G
0J
0Q
#660000
0!
03
b11110 4
b10100101101001010000000000000010 8
09
0K
b11 X
#665000
1!
19
#670000
0!
b1100 -
1.
09
b1100 E
1F
#675000
1!
0/
b10100101101001010000000000000011 0
12
19
0G
b10100101101001010000000000000011 H
1J
1Q
#680000
0!
0.
13
09
0F
1K
#685000
1!
1/
02
19
1G
0J
0Q
#690000
0!
03
b100000 4
b10100101101001010000000000000011 8
09
0K
b100 X
#695000
1!
19
#700000
0!
b0 #
1$
b0 &
b1111 '
1(
09
b0 ;
1<
b0 >
1@
#705000
1!
0%
0)
1+
19
0=
0A
1C
b11 L
b0 R
b0 S
#710000
0!
0$
0(
1,
09
0<
0@
1D
#715000
1!
1%
1)
0+
19
1=
1A
0C
b0 L
#720000
0!
0,
b100001 4
09
0D
#725000
1!
19
#730000
0!
b0 -
1.
09
b0 E
1F
#735000
1!
0/
b0 0
12
19
0G
b0 H
1J
1Q
#740000
0!
0.
13
09
0F
1K
#745000
1!
1/
02
19
1G
0J
0Q
#750000
0!
03
b100011 4
b0 8
09
0K
b1 Y
#755000
1!
19
#760000
0!
b100 #
1$
b0 &
b1111 '
1(
09
b100 ;
1<
1@
#765000
1!
0%
0)
1+
19
0=
0A
1C
b11 L
b1 R
#770000
0!
0$
0(
1,
09
0<
0@
1D
#775000
1!
1%
1)
0+
19
1=
1A
0C
b0 L
#780000
0!
0,
b100100 4
09
0D
#785000
1!
19
#790000
0!
b100 -
1.
09
b100 E
1F
#795000
1!
0/
12
19
0G
1J
1Q
#800000
0!
0.
13
09
0F
1K
#805000
1!
1/
02
19
1G
0J
0Q
#810000
0!
03
b100110 4
09
0K
b10 Y
#815000
1!
19
#820000
0!
b1000 #
1$
b0 &
b1111 '
1(
09
b1000 ;
1<
1@
#825000
1!
0%
0)
1+
19
0=
0A
1C
b11 L
b10 R
#830000
0!
0$
0(
1,
09
0<
0@
1D
#835000
1!
1%
1)
0+
19
1=
1A
0C
b0 L
#840000
0!
0,
b100111 4
09
0D
#845000
1!
19
#850000
0!
b1000 -
1.
09
b1000 E
1F
#855000
1!
0/
12
19
0G
1J
1Q
#860000
0!
0.
13
09
0F
1K
#865000
1!
1/
02
19
1G
0J
0Q
#870000
0!
03
b101001 4
09
0K
b11 Y
#875000
1!
19
#880000
0!
b1100 #
1$
b0 &
b1111 '
1(
09
b1100 ;
1<
1@
#885000
1!
0%
0)
1+
19
0=
0A
1C
b11 L
b11 R
#890000
0!
0$
0(
1,
09
0<
0@
1D
#895000
1!
1%
1)
0+
19
1=
1A
0C
b0 L
#900000
0!
0,
b101010 4
09
0D
#905000
1!
19
#910000
0!
b1100 -
1.
09
b1100 E
1F
#915000
1!
0/
12
19
0G
1J
1Q
#920000
0!
0.
13
09
0F
1K
#925000
1!
1/
02
19
1G
0J
0Q
#930000
0!
03
b101100 4
09
0K
b100 Y
#935000
1!
19
#940000
0!
b0 #
1$
b11111111111111111111111111111111 &
b1111 '
1(
09
b0 ;
1<
b11111111111111111111111111111111 >
1@
#945000
1!
0%
0)
1+
19
0=
0A
1C
b11 L
b0 R
b11111111111111111111111111111111 S
#950000
0!
0$
0(
1,
09
0<
0@
1D
#955000
1!
1%
1)
0+
19
1=
1A
0C
b0 L
#960000
0!
0,
b101101 4
09
0D
#965000
1!
19
#970000
0!
b0 #
1$
b0 &
b1 '
1(
09
1<
b0 >
b1 ?
1@
#975000
1!
0%
0)
1+
19
0=
0A
1C
b11 L
b0 S
b1 T
#980000
0!
0$
0(
1,
09
0<
0@
1D
#985000
1!
1%
1)
0+
19
1=
1A
0C
b0 L
#990000
0!
0,
b101110 4
09
0D
#995000
1!
19
#1000000
0!
b0 -
1.
09
b0 E
1F
#1005000
1!
0/
b11111111111111111111111100000000 0
12
19
0G
b11111111111111111111111100000000 H
1J
1Q
#1010000
0!
0.
13
09
0F
1K
#1015000
1!
1/
02
19
1G
0J
0Q
#1020000
0!
03
b110000 4
b11111111111111111111111100000000 8
09
0K
#1025000
1!
19
#1030000
0!
b0 #
1$
b10101011000000000000000000000000 &
b1000 '
1(
09
1<
b10101011000000000000000000000000 >
b1000 ?
1@
#1035000
1!
0%
0)
1+
19
0=
0A
1C
b11 L
b10101011000000000000000000000000 S
b1000 T
#1040000
0!
0$
0(
1,
09
0<
0@
1D
#1045000
1!
1%
1)
0+
19
1=
1A
0C
b0 L
#1050000
0!
0,
b110001 4
09
0D
#1055000
1!
19
#1060000
0!
b0 -
1.
09
1F
#1065000
1!
0/
b10101011111111111111111100000000 0
12
19
0G
b10101011111111111111111100000000 H
1J
1Q
#1070000
0!
0.
13
09
0F
1K
#1075000
1!
1/
02
19
1G
0J
0Q
#1080000
0!
03
b110011 4
b10101011111111111111111100000000 8
09
0K
#1085000
1!
19
#1090000
0!
b0 #
1$
b1101000001001000000000 &
b110 '
1(
09
1<
b1101000001001000000000 >
b110 ?
1@
#1095000
1!
0%
0)
1+
19
0=
0A
1C
b11 L
b1101000001001000000000 S
b110 T
#1100000
0!
0$
0(
1,
09
0<
0@
1D
#1105000
1!
1%
1)
0+
19
1=
1A
0C
b0 L
#1110000
0!
0,
b110100 4
09
0D
#1115000
1!
19
#1120000
0!
b0 -
1.
09
1F
#1125000
1!
0/
b10101011001101000001001000000000 0
12
19
0G
b10101011001101000001001000000000 H
1J
1Q
#1130000
0!
0.
13
09
0F
1K
#1135000
1!
1/
02
19
1G
0J
0Q
#1140000
0!
03
b110110 4
b10101011001101000001001000000000 8
09
0K
#1145000
1!
19
#1150000
0!
b0 #
1$
b0 &
b1111 '
1(
09
1<
b0 >
b1111 ?
1@
#1155000
1!
0%
0)
1+
19
0=
0A
1C
b11 L
b0 S
b1111 T
#1160000
0!
0$
0(
1,
09
0<
0@
1D
#1165000
1!
1%
1)
0+
19
1=
1A
0C
b0 L
#1170000
0!
0,
09
0D
#1175000
1!
19
#1180000
0!
b1000 #
1$
b11111111111111111111111111111111 &
b1111 '
1(
09
b1000 ;
1<
b11111111111111111111111111111111 >
1@
#1185000
1!
0%
0)
1+
19
0=
0A
1C
b11 L
b10 R
b11111111111111111111111111111111 S
#1190000
0!
0$
0(
1,
09
0<
0@
1D
#1195000
1!
1%
1)
0+
19
1=
1A
0C
b0 L
#1200000
0!
0,
b110111 4
09
0D
#1205000
1!
19
#1210000
0!
b1000 #
1$
b10001 &
b1 '
1(
09
1<
b10001 >
b1 ?
1@
#1215000
1!
0%
0)
1+
19
0=
0A
1C
b11 L
b10001 S
b1 T
#1220000
0!
0$
0(
1,
09
0<
0@
1D
#1225000
1!
1%
1)
0+
19
1=
1A
0C
b0 L
#1230000
0!
0,
b111000 4
09
0D
#1235000
1!
19
#1240000
0!
b1000 -
1.
09
b1000 E
1F
#1245000
1!
0/
b11111111111111111111111100010001 0
12
19
0G
b11111111111111111111111100010001 H
1J
1Q
#1250000
0!
0.
13
09
0F
1K
#1255000
1!
1/
02
19
1G
0J
0Q
#1260000
0!
03
b111010 4
b11111111111111111111111100010001 8
09
0K
#1265000
1!
19
#1270000
0!
b1000 #
1$
b10001000000000 &
b10 '
1(
09
1<
b10001000000000 >
b10 ?
1@
#1275000
1!
0%
0)
1+
19
0=
0A
1C
b11 L
b10001000000000 S
b10 T
#1280000
0!
0$
0(
1,
09
0<
0@
1D
#1285000
1!
1%
1)
0+
19
1=
1A
0C
b0 L
#1290000
0!
0,
b111011 4
09
0D
#1295000
1!
19
#1300000
0!
b1000 -
1.
09
1F
#1305000
1!
0/
b11111111111111110010001000010001 0
12
19
0G
b11111111111111110010001000010001 H
1J
1Q
#1310000
0!
0.
13
09
0F
1K
#1315000
1!
1/
02
19
1G
0J
0Q
#1320000
0!
03
b111101 4
b11111111111111110010001000010001 8
09
0K
#1325000
1!
19
#1330000
0!
b1000 #
1$
b1100110000000000000000 &
b100 '
1(
09
1<
b1100110000000000000000 >
b100 ?
1@
#1335000
1!
0%
0)
1+
19
0=
0A
1C
b11 L
b1100110000000000000000 S
b100 T
#1340000
0!
0$
0(
1,
09
0<
0@
1D
#1345000
1!
1%
1)
0+
19
1=
1A
0C
b0 L
#1350000
0!
0,
b111110 4
09
0D
#1355000
1!
19
#1360000
0!
b1000 -
1.
09
1F
#1365000
1!
0/
b11111111001100110010001000010001 0
12
19
0G
b11111111001100110010001000010001 H
1J
1Q
#1370000
0!
0.
13
09
0F
1K
#1375000
1!
1/
02
19
1G
0J
0Q
#1380000
0!
03
b1000000 4
b11111111001100110010001000010001 8
09
0K
#1385000
1!
19
#1390000
0!
b1000 #
1$
b1000100000000000000000000000000 &
b1000 '
1(
09
1<
b1000100000000000000000000000000 >
b1000 ?
1@
#1395000
1!
0%
0)
1+
19
0=
0A
1C
b11 L
b1000100000000000000000000000000 S
b1000 T
#1400000
0!
0$
0(
1,
09
0<
0@
1D
#1405000
1!
1%
1)
0+
19
1=
1A
0C
b0 L
#1410000
0!
0,
b1000001 4
09
0D
#1415000
1!
19
#1420000
0!
b1000 -
1.
09
1F
#1425000
1!
0/
b1000100001100110010001000010001 0
12
19
0G
b1000100001100110010001000010001 H
1J
1Q
#1430000
0!
0.
13
09
0F
1K
#1435000
1!
1/
02
19
1G
0J
0Q
#1440000
0!
03
b1000011 4
b1000100001100110010001000010001 8
09
0K
#1445000
1!
19
#1450000
0!
b1000 #
1$
b0 &
b1111 '
1(
09
1<
b0 >
b1111 ?
1@
#1455000
1!
0%
0)
1+
19
0=
0A
1C
b11 L
b0 S
b1111 T
#1460000
0!
0$
0(
1,
09
0<
0@
1D
#1465000
1!
1%
1)
0+
19
1=
1A
0C
b0 L
#1470000
0!
0,
09
0D
#1475000
1!
19
#1480000
0!
b100 #
1$
09
b100 ;
1<
#1485000
1!
0%
19
0=
b1 L
b100 M
#1490000
0!
0$
b11011110101011011011111011101111 &
b1111 '
1(
09
0<
b11011110101011011011111011101111 >
1@
#1495000
1!
0)
1+
19
0A
1C
b11 L
b1 R
b11011110101011011011111011101111 S
#1500000
0!
0(
1,
09
0@
1D
#1505000
1!
1%
1)
0+
19
1=
1A
0C
b0 L
#1510000
0!
0,
b1000100 4
09
0D
#1515000
1!
19
#1520000
0!
b100 -
1.
09
b100 E
1F
#1525000
1!
0/
b11011110101011011011111011101111 0
12
19
0G
b11011110101011011011111011101111 H
1J
1Q
#1530000
0!
0.
13
09
0F
1K
#1535000
1!
1/
02
19
1G
0J
0Q
#1540000
0!
03
b1000110 4
b11011110101011011011111011101111 8
09
0K
#1545000
1!
19
#1550000
0!
b100 #
1$
b0 &
b1111 '
1(
09
1<
b0 >
1@
#1555000
1!
0%
0)
1+
19
0=
0A
1C
b11 L
b0 S
#1560000
0!
0$
0(
1,
09
0<
0@
1D
#1565000
1!
1%
1)
0+
19
1=
1A
0C
b0 L
#1570000
0!
0,
b1000111 4
09
0D
#1575000
1!
19
#1580000
0!
b11001010111111101111000000001101 &
b1111 '
1(
09
b11001010111111101111000000001101 >
1@
#1585000
1!
0)
19
0A
b10 L
b11001010111111101111000000001101 N
b1111 O
#1590000
0!
b1000 #
1$
0(
09
b1000 ;
1<
0@
#1595000
1!
0%
1+
19
0=
1C
b11 L
b10 R
b11001010111111101111000000001101 S
#1600000
0!
0$
1,
09
0<
1D
#1605000
1!
1%
1)
0+
19
1=
1A
0C
b0 L
#1610000
0!
0,
b1001000 4
09
0D
#1615000
1!
19
#1620000
0!
b1000 -
1.
09
b1000 E
1F
#1625000
1!
0/
b11001010111111101111000000001101 0
12
19
0G
b11001010111111101111000000001101 H
1J
1Q
#1630000
0!
0.
13
09
0F
1K
#1635000
1!
1/
02
19
1G
0J
0Q
#1640000
0!
03
b1001010 4
b11001010111111101111000000001101 8
09
0K
#1645000
1!
19
#1650000
0!
b1000 #
1$
b0 &
b1111 '
1(
09
1<
b0 >
1@
#1655000
1!
0%
0)
1+
19
0=
0A
1C
b11 L
b0 S
#1660000
0!
0$
0(
1,
09
0<
0@
1D
#1665000
1!
1%
1)
0+
19
1=
1A
0C
b0 L
#1670000
0!
0,
b1001011 4
09
0D
#1675000
1!
19
#1680000
0!
b0 #
1$
b10101010101010101010101010101010 &
b1111 '
1(
09
b0 ;
1<
b10101010101010101010101010101010 >
1@
#1685000
1!
0%
0)
1+
19
0=
0A
1C
b11 L
b0 R
b10101010101010101010101010101010 S
#1690000
0!
0$
0(
1,
09
0<
0@
1D
#1695000
1!
1%
1)
0+
19
1=
1A
0C
b0 L
#1700000
0!
0,
b1001100 4
09
0D
#1705000
1!
19
#1710000
0!
b10000 #
1$
b10010001101000101011001111000 &
b1111 '
1(
09
b10000 ;
1<
b10010001101000101011001111000 >
1@
#1715000
1!
0%
0)
b10 *
1+
19
0=
0A
b10 B
1C
b11 L
#1720000
0!
0$
0(
1,
09
0<
0@
1D
#1725000
1!
1%
1)
b0 *
0+
b10 6
19
1=
1A
b0 B
0C
b0 L
#1730000
0!
0,
b1001101 4
09
0D
#1735000
1!
19
#1740000
0!
b10000 -
1.
09
b10000 E
1F
#1745000
1!
0/
b0 0
b10 1
12
19
0G
b0 H
b10 I
1J
1Q
#1750000
0!
0.
13
09
0F
1K
#1755000
1!
1/
b0 1
02
b10 7
19
1G
b0 I
0J
0Q
#1760000
0!
03
b1001111 4
b0 8
09
0K
#1765000
1!
19
#1770000
0!
b0 -
1.
09
b0 E
1F
#1775000
1!
0/
b10101010101010101010101010101010 0
12
19
0G
b10101010101010101010101010101010 H
1J
1Q
#1780000
0!
0.
13
09
0F
1K
#1785000
1!
1/
02
b0 7
19
1G
0J
0Q
#1790000
0!
03
b1010000 4
b10101010101010101010101010101010 8
09
0K
#1795000
1!
19
#1800000
0!
b0 #
1$
b0 &
b1111 '
1(
09
b0 ;
1<
b0 >
1@
#1805000
1!
0%
0)
1+
19
0=
0A
1C
b11 L
b0 S
#1810000
0!
0$
0(
1,
09
0<
0@
1D
#1815000
1!
1%
1)
0+
b0 6
19
1=
1A
0C
b0 L
#1820000
0!
0,
09
0D
#1825000
1!
19
#1830000
0!
b1100 #
1$
b10111110111011111100101011111110 &
b1111 '
1(
09
b1100 ;
1<
b10111110111011111100101011111110 >
1@
#1835000
1!
0%
0)
1+
19
0=
0A
1C
b11 L
b11 R
b10111110111011111100101011111110 S
#1840000
0!
0$
0(
1,
09
0<
0@
1D
#1845000
1!
1%
1)
0+
19
1=
1A
0C
b0 L
#1850000
0!
0,
b1010001 4
09
0D
#1855000
1!
19
#1860000
0!
b1100 -
1.
09
b1100 E
1F
#1865000
1!
0/
b10111110111011111100101011111110 0
12
19
0G
b10111110111011111100101011111110 H
1J
1Q
#1870000
0!
0.
13
09
0F
1K
#1875000
1!
1/
02
19
1G
0J
0Q
#1880000
0!
03
b1010011 4
b10111110111011111100101011111110 8
09
0K
#1885000
1!
19
#1890000
0!
b1100 #
1$
b0 &
b1111 '
1(
09
1<
b0 >
1@
#1895000
1!
0%
0)
1+
19
0=
0A
1C
b11 L
b0 S
#1900000
0!
0$
0(
1,
09
0<
0@
1D
#1905000
1!
1%
1)
0+
19
1=
1A
0C
b0 L
#1910000
0!
0,
b1010100 4
09
0D
#1915000
1!
19
#1920000
0!
b0 #
1$
b10111010010111101011000000000000 &
b1111 '
1(
09
b0 ;
1<
b10111010010111101011000000000000 >
1@
#1925000
1!
0%
0)
1+
19
0=
0A
1C
b11 L
b0 R
b10111010010111101011000000000000 S
#1930000
0!
0$
0(
09
0<
0@
#1935000
1!
19
#1940000
0!
09
#1945000
1!
19
#1950000
0!
09
#1955000
1!
19
#1960000
0!
09
#1965000
1!
19
#1970000
0!
1,
09
1D
#1975000
1!
1%
1)
0+
19
1=
1A
0C
b0 L
#1980000
0!
0,
b1010101 4
09
0D
#1985000
1!
19
#1990000
0!
b100 #
1$
b11000000110111101111000000001101 &
b1111 '
1(
09
b100 ;
1<
b11000000110111101111000000001101 >
1@
#1995000
1!
0%
0)
1+
19
0=
0A
1C
b11 L
b1 R
b11000000110111101111000000001101 S
#2000000
0!
0$
0(
09
0<
0@
#2005000
1!
19
#2010000
0!
09
#2015000
1!
19
#2020000
0!
09
#2025000
1!
19
#2030000
0!
09
#2035000
1!
19
#2040000
0!
09
#2045000
1!
19
#2050000
0!
09
#2055000
1!
19
#2060000
0!
09
#2065000
1!
19
#2070000
0!
09
#2075000
1!
19
#2080000
0!
1,
09
1D
#2085000
1!
1%
1)
0+
19
1=
1A
0C
b0 L
#2090000
0!
0,
b1010110 4
09
0D
#2095000
1!
19
#2100000
0!
b0 -
1.
09
b0 E
1F
#2105000
1!
0/
b10111010010111101011000000000000 0
12
19
0G
b10111010010111101011000000000000 H
1J
1Q
#2110000
0!
0.
13
09
0F
1K
#2115000
1!
1/
02
19
1G
0J
0Q
#2120000
0!
03
b1011000 4
b10111010010111101011000000000000 8
09
0K
#2125000
1!
19
#2130000
0!
b100 -
1.
09
b100 E
1F
#2135000
1!
0/
b11000000110111101111000000001101 0
12
19
0G
b11000000110111101111000000001101 H
1J
1Q
#2140000
0!
0.
13
09
0F
1K
#2145000
1!
1/
02
19
1G
0J
0Q
#2150000
0!
03
b1011010 4
b11000000110111101111000000001101 8
09
0K
#2155000
1!
19
#2160000
0!
b0 #
1$
b0 &
b1111 '
1(
09
b0 ;
1<
b0 >
1@
#2165000
1!
0%
0)
1+
19
0=
0A
1C
b11 L
b0 R
b0 S
#2170000
0!
0$
0(
1,
09
0<
0@
1D
#2175000
1!
1%
1)
0+
19
1=
1A
0C
b0 L
#2180000
0!
0,
b1011011 4
09
0D
#2185000
1!
19
#2190000
0!
b100 #
1$
b0 &
b1111 '
1(
09
b100 ;
1<
1@
#2195000
1!
0%
0)
1+
19
0=
0A
1C
b11 L
b1 R
#2200000
0!
0$
0(
1,
09
0<
0@
1D
#2205000
1!
1%
1)
0+
19
1=
1A
0C
b0 L
#2210000
0!
0,
b1011100 4
09
0D
#2215000
1!
19
#2220000
0!
b1000 #
1$
b11110000000011011100101011111110 &
b1111 '
1(
09
b1000 ;
1<
b11110000000011011100101011111110 >
1@
#2225000
1!
0%
0)
1+
19
0=
0A
1C
b11 L
b10 R
b11110000000011011100101011111110 S
#2230000
0!
0$
0(
1,
09
0<
0@
1D
#2235000
1!
1%
1)
0+
19
1=
1A
0C
b0 L
#2240000
0!
0,
b1011101 4
09
0D
#2245000
1!
19
#2250000
0!
b1100 #
1$
b11011110101011010000000000000001 &
b1111 '
1(
09
b1100 ;
1<
b11011110101011010000000000000001 >
1@
#2255000
1!
0%
0)
1+
19
0=
0A
1C
b11 L
b11 R
b11011110101011010000000000000001 S
#2260000
0!
0$
0(
1,
09
0<
0@
1D
#2265000
1!
1%
1)
0+
19
1=
1A
0C
b0 L
#2270000
0!
0,
b1011110 4
09
0D
