VIVADO_MIN_EXAMPLE/logs/simple_dma_add_nword_tb.vcd
$date
   Sun May  3 09:49:45 2026
$end
$version
  2022.2
$end
$timescale
  1ps
$end
$scope module simple_dma_add_nword_tb $end
$var reg 1 ! aclk $end
$var reg 1 " aresetn $end
$var reg 1 # start_tb $end
$var reg 32 $ src_tb [31:0] $end
$var reg 32 % dst_tb [31:0] $end
$var reg 16 & len_tb [15:0] $end
$var reg 32 ' add_tb [31:0] $end
$var wire 32 ( axi_araddr [31:0] $end
$var wire 1 ) axi_arvalid $end
$var wire 1 * axi_arready $end
$var wire 32 + axi_rdata [31:0] $end
$var wire 2 , axi_rresp [1:0] $end
$var wire 1 - axi_rlast $end
$var wire 1 . axi_rvalid $end
$var wire 1 / axi_rready $end
$var wire 32 0 axi_awaddr [31:0] $end
$var wire 1 1 axi_awvalid $end
$var wire 1 2 axi_awready $end
$var wire 32 3 axi_wdata [31:0] $end
$var wire 4 4 axi_wstrb [3:0] $end
$var wire 1 5 axi_wlast $end
$var wire 1 6 axi_wvalid $end
$var wire 1 7 axi_wready $end
$var wire 2 8 axi_bresp [1:0] $end
$var wire 1 9 axi_bvalid $end
$var wire 1 : axi_bready $end
$var wire 32 ; last_input_data [31:0] $end
$var wire 32 < last_output_data [31:0] $end
$var wire 16 = processed_count [15:0] $end
$var wire 1 > done $end
$var wire 1 ? error $end
$var reg 32 @ pass_count [31:0] $end
$var reg 32 A fail_count [31:0] $end
$scope module dut $end
$var wire 1 B aclk $end
$var wire 1 C aresetn $end
$var wire 1 D start $end
$var wire 32 E src_addr [31:0] $end
$var wire 32 F dst_addr [31:0] $end
$var wire 16 G length_words [15:0] $end
$var wire 32 H add_value [31:0] $end
$var wire 32 ; last_input_data [31:0] $end
$var wire 32 < last_output_data [31:0] $end
$var wire 16 = processed_count [15:0] $end
$var wire 1 > done $end
$var wire 1 ? error $end
$var wire 32 ( araddr [31:0] $end
$var wire 1 ) arvalid $end
$var wire 1 * arready $end
$var wire 32 + rdata [31:0] $end
$var wire 2 , rresp [1:0] $end
$var wire 1 - rlast $end
$var wire 1 . rvalid $end
$var wire 1 / rready $end
$var wire 32 0 awaddr [31:0] $end
$var wire 1 1 awvalid $end
$var wire 1 2 awready $end
$var wire 32 3 wdata [31:0] $end
$var wire 4 4 wstrb [3:0] $end
$var wire 1 5 wlast $end
$var wire 1 6 wvalid $end
$var wire 1 7 wready $end
$var wire 2 8 bresp [1:0] $end
$var wire 1 9 bvalid $end
$var wire 1 : bready $end
$var reg 3 I state [2:0] $end
$var reg 32 J src_lat [31:0] $end
$var reg 32 K dst_lat [31:0] $end
$var reg 16 L len_lat [15:0] $end
$var reg 32 M add_lat [31:0] $end
$var reg 16 N word_idx [15:0] $end
$var reg 32 O input_lat [31:0] $end
$var reg 16 P processed_count_r [15:0] $end
$var reg 1 Q read_err $end
$var reg 1 R write_err $end
$var reg 1 S done_r $end
$var reg 1 T error_r $end
$var wire 32 U cur_raddr [31:0] $end
$var wire 32 V cur_waddr [31:0] $end
$var wire 32 W processed_data [31:0] $end
$upscope $end
$scope module slave $end
$var wire 1 X aclk $end
$var wire 1 Y aresetn $end
$var wire 32 0 awaddr [31:0] $end
$var wire 1 1 awvalid $end
$var reg 1 Z awready $end
$var wire 32 3 wdata [31:0] $end
$var wire 4 4 wstrb [3:0] $end
$var wire 1 5 wlast $end
$var wire 1 6 wvalid $end
$var reg 1 [ wready $end
$var reg 2 \ bresp [1:0] $end
$var reg 1 ] bvalid $end
$var wire 1 : bready $end
$var wire 32 ( araddr [31:0] $end
$var wire 1 ) arvalid $end
$var reg 1 ^ arready $end
$var reg 32 _ rdata [31:0] $end
$var reg 2 ` rresp [1:0] $end
$var reg 1 a rlast $end
$var reg 1 b rvalid $end
$var wire 1 / rready $end
$var integer 32 c init_i [31:0] $end
$var reg 2 d wstate [1:0] $end
$var reg 32 e aw_latch [31:0] $end
$var reg 32 f wd_latch [31:0] $end
$var reg 4 g ws_latch [3:0] $end
$var integer 32 h i [31:0] $end
$var reg 1 i rstate $end
$scope function addr_in_range $end
$var reg 1 j addr_in_range $end
$var reg 32 k a [31:0] $end
$upscope $end
$scope task do_write $end
$var reg 32 l a [31:0] $end
$var reg 32 m d [31:0] $end
$var reg 4 n s [3:0] $end
$var integer 32 o idx [31:0] $end
$upscope $end
$upscope $end
$scope task run_dma $end
$var reg 32 p tsrc [31:0] $end
$var reg 32 q tdst [31:0] $end
$var reg 16 r tlen [15:0] $end
$var reg 32 s tadd [31:0] $end
$var reg 32 t timeout [31:0] $end
$upscope $end
$scope task check_eq $end
$var reg 32 p got [31:0] $end
$var reg 32 q exp [31:0] $end
$var reg 32 u label $end
$upscope $end
$scope task check_eq16 $end
$var reg 16 v got [15:0] $end
$var reg 16 w exp [15:0] $end
$var reg 32 u label $end
$upscope $end
$scope task check_bit $end
$var reg 1 x got $end
$var reg 1 y exp $end
$var reg 32 u label $end
$upscope $end
$upscope $end
$enddefinitions $end
#0
$dumpvars
0!
0"
0#
b0 $
b0 %
b0 &
b0 '
b0 (
0)
1*
b0 +
b0 ,
0-
0.
0/
b0 0
01
12
b0 3
b1111 4
15
06
17
b0 8
09
0:
b0 ;
b0 <
b0 =
0>
0?
b0 @
b0 A
0B
0C
0D
b0 E
b0 F
b0 G
b0 H
b0 I
b0 J
b0 K
b0 L
b0 M
b0 N
b0 O
b0 P
0Q
0R
0S
0T
b0 U
b0 V
b0 W
0X
0Y
1Z
1[
b0 \
0]
1^
b0 _
b0 `
0a
0b
b10000000000 c
b0 d
bx e
bx f
bx g
bx h
0i
0j
b0 k
bx l
bx m
bx n
bx o
b0 p
b0 q
b0 r
b0 s
b0 t
b0 u
b0 v
b0 w
0x
0y
$end
#5000
1!
1B
1X
#10000
0!
0B
0X
#15000
1!
1B
1X
#20000
0!
0B
0X
#25000
1!
1B
1X
#30000
0!
0B
0X
#35000
1!
1B
1X
#40000
0!
0B
0X
#45000
1!
1B
1X
#50000
0!
0B
0X
#55000
1!
1B
1X
#60000
0!
0B
0X
#65000
1!
1B
1X
#70000
0!
0B
0X
#75000
1!
1"
1B
1C
1X
1Y
#80000
0!
0B
0X
#85000
1!
1B
1X
#90000
0!
0B
0X
#95000
1!
1B
1X
#100000
0!
1#
b0 $
b11010000 %
b0 &
b10000 '
0B
1D
b11010000 F
b10000 H
0X
#105000
1!
b11010000 0
b10000 3
b10000 <
1B
b101 I
b11010000 K
b10000 M
b11010000 V
b10000 W
1X
#110000
0!
0#
0B
0D
0X
#115000
1!
1>
1B
b0 I
1S
1X
#120000
0!
0B
0X
#125000
1!
0>
b100 @
1B
0S
1X
#130000
0!
1#
b0 $
b1000000 %
b1 &
b101 '
0B
1D
b1000000 F
b1 G
b101 H
0X
#135000
1!
1)
b1000000 0
b101 3
b101 <
1B
b1 I
b1000000 K
b1 L
b101 M
b1000000 V
b101 W
1X
#140000
0!
0#
0B
0D
0X
#145000
1!
0)
0*
b10000 +
1-
1.
1/
1B
b10 I
1X
0^
b10000 _
1a
1b
1i
#150000
0!
0B
0X
#155000
1!
1*
0-
0.
0/
11
b10101 3
16
b10000 ;
b10101 <
1B
b11 I
b10000 O
b10101 W
1X
1^
0a
0b
0i
#160000
0!
0B
0X
#165000
1!
01
02
06
07
19
1:
1B
b100 I
1X
0Z
0[
1]
b11 d
b1000000 l
b10101 m
b1111 n
b10000 o
#170000
0!
0B
0X
#175000
1!
12
17
09
0:
b1 =
1B
b101 I
b1 P
1X
1Z
1[
0]
b0 d
#180000
0!
0B
0X
#185000
1!
1>
1B
b0 I
1S
1X
#190000
0!
0B
0X
#195000
1!
b0 =
0>
b1010 @
1B
b0 P
0S
1X
#200000
0!
1#
b10000 $
b10000000 %
b100 &
b100000000 '
0B
1D
b10000 E
b10000000 F
b100 G
b100000000 H
0X
#205000
1!
b10000 (
1)
b10000000 0
b100010000 3
b100010000 <
1B
b1 I
b10000 J
b10000000 K
b100 L
b100000000 M
b10000 U
b10000000 V
b100010000 W
1X
#210000
0!
0#
0B
0D
0X
#215000
1!
0)
0*
b10000000000000000000000000001 +
1-
1.
1/
1B
b10 I
1X
0^
b10000000000000000000000000001 _
1a
1b
1i
#220000
0!
0B
0X
#225000
1!
1*
0-
0.
0/
11
b10000000000000000000100000001 3
16
b10000000000000000000000000001 ;
b10000000000000000000100000001 <
1B
b11 I
b10000000000000000000000000001 O
b10000000000000000000100000001 W
1X
1^
0a
0b
0i
#230000
0!
0B
0X
#235000
1!
01
02
06
07
19
1:
1B
b100 I
1X
0Z
0[
1]
b11 d
b10000000 l
b10000000000000000000100000001 m
b100000 o
#240000
0!
0B
0X
#245000
1!
b10100 (
1)
b10000100 0
12
17
09
0:
b1 =
1B
b1 I
b1 N
b1 P
b10100 U
b10000100 V
1X
1Z
1[
0]
b0 d
#250000
0!
0B
0X
#255000
1!
0)
0*
b100000000000000000000000000010 +
1-
1.
1/
1B
b10 I
1X
0^
b100000000000000000000000000010 _
1a
1b
1i
#260000
0!
0B
0X
#265000
1!
1*
0-
0.
0/
11
b100000000000000000000100000010 3
16
b100000000000000000000000000010 ;
b100000000000000000000100000010 <
1B
b11 I
b100000000000000000000000000010 O
b100000000000000000000100000010 W
1X
1^
0a
0b
0i
#270000
0!
0B
0X
#275000
1!
01
02
06
07
19
1:
1B
b100 I
1X
0Z
0[
1]
b11 d
b10000100 l
b100000000000000000000100000010 m
b100001 o
#280000
0!
0B
0X
#285000
1!
b11000 (
1)
b10001000 0
12
17
09
0:
b10 =
1B
b1 I
b10 N
b10 P
b11000 U
b10001000 V
1X
1Z
1[
0]
b0 d
#290000
0!
0B
0X
#295000
1!
0)
0*
b110000000000000000000000000011 +
1-
1.
1/
1B
b10 I
1X
0^
b110000000000000000000000000011 _
1a
1b
1i
#300000
0!
0B
0X
#305000
1!
1*
0-
0.
0/
11
b110000000000000000000100000011 3
16
b110000000000000000000000000011 ;
b110000000000000000000100000011 <
1B
b11 I
b110000000000000000000000000011 O
b110000000000000000000100000011 W
1X
1^
0a
0b
0i
#310000
0!
0B
0X
#315000
1!
01
02
06
07
19
1:
1B
b100 I
1X
0Z
0[
1]
b11 d
b10001000 l
b110000000000000000000100000011 m
b100010 o
#320000
0!
0B
0X
#325000
1!
b11100 (
1)
b10001100 0
12
17
09
0:
b11 =
1B
b1 I
b11 N
b11 P
b11100 U
b10001100 V
1X
1Z
1[
0]
b0 d
#330000
0!
0B
0X
#335000
1!
0)
0*
b1000000000000000000000000000100 +
1-
1.
1/
1B
b10 I
1X
0^
b1000000000000000000000000000100 _
1a
1b
1i
#340000
0!
0B
0X
#345000
1!
1*
0-
0.
0/
11
b1000000000000000000000100000100 3
16
b1000000000000000000000000000100 ;
b1000000000000000000000100000100 <
1B
b11 I
b1000000000000000000000000000100 O
b1000000000000000000000100000100 W
1X
1^
0a
0b
0i
#350000
0!
0B
0X
#355000
1!
01
02
06
07
19
1:
1B
b100 I
1X
0Z
0[
1]
b11 d
b10001100 l
b1000000000000000000000100000100 m
b100011 o
#360000
0!
0B
0X
#365000
1!
12
17
09
0:
b100 =
1B
b101 I
b100 P
1X
1Z
1[
0]
b0 d
#370000
0!
0B
0X
#375000
1!
1>
1B
b0 I
1S
1X
#380000
0!
0B
0X
#385000
1!
b10000 (
b10000000 0
b0 =
0>
b10011 @
1B
b0 N
b0 P
0S
b10000 U
b10000000 V
1X
#390000
0!
1#
b100000 $
b11000000 %
b1 &
b1 '
0B
1D
b100000 E
b11000000 F
b1 G
b1 H
0X
#395000
1!
b100000 (
1)
b11000000 0
b1000000000000000000000000000101 3
b1000000000000000000000000000101 <
1B
b1 I
b100000 J
b11000000 K
b1 L
b1 M
b100000 U
b11000000 V
b1000000000000000000000000000101 W
1X
#400000
0!
0#
0B
0D
0X
#405000
1!
0)
0*
b11111111111111111111111111111111 +
1-
1.
1/
1B
b10 I
1X
0^
b11111111111111111111111111111111 _
1a
1b
1i
#410000
0!
0B
0X
#415000
1!
1*
0-
0.
0/
11
b0 3
16
b11111111111111111111111111111111 ;
b0 <
1B
b11 I
b11111111111111111111111111111111 O
b0 W
1X
1^
0a
0b
0i
#420000
0!
0B
0X
#425000
1!
01
02
06
07
19
1:
1B
b100 I
1X
0Z
0[
1]
b11 d
b11000000 l
b0 m
b110000 o
#430000
0!
0B
0X
#435000
1!
12
17
09
0:
b1 =
1B
b101 I
b1 P
1X
1Z
1[
0]
b0 d
#440000
0!
0B
0X
#445000
1!
1>
1B
b0 I
1S
1X
#450000
0!
0B
0X
#455000
1!
b0 =
0>
b10111 @
1B
b0 P
0S
1X
#460000
0!
1#
b111111110100 $
b100000000 %
b100 &
b10000 '
0B
1D
b111111110100 E
b100000000 F
b100 G
b10000 H
0X
#465000
1!
b111111110100 (
1)
b100000000 0
b1111 3
b1111 <
1B
b1 I
b111111110100 J
b100000000 K
b100 L
b10000 M
b111111110100 U
b100000000 V
b1111 W
1X
#470000
0!
0#
0B
0D
0X
#475000
1!
0)
0*
b10101010101010100001000100010001 +
1-
1.
1/
1B
b10 I
1X
0^
b10101010101010100001000100010001 _
1a
1b
1i
#480000
0!
0B
0X
#485000
1!
1*
0-
0.
0/
11
b10101010101010100001000100100001 3
16
b10101010101010100001000100010001 ;
b10101010101010100001000100100001 <
1B
b11 I
b10101010101010100001000100010001 O
b10101010101010100001000100100001 W
1X
1^
0a
0b
0i
#490000
0!
0B
0X
#495000
1!
01
02
06
07
19
1:
1B
b100 I
1X
0Z
0[
1]
b11 d
b100000000 l
b10101010101010100001000100100001 m
b1000000 o
#500000
0!
0B
0X
#505000
1!
b111111111000 (
1)
b100000100 0
12
17
09
0:
b1 =
1B
b1 I
b1 N
b1 P
b111111111000 U
b100000100 V
1X
1Z
1[
0]
b0 d
#510000
0!
0B
0X
#515000
1!
0)
0*
b10111011101110110010001000100010 +
1-
1.
1/
1B
b10 I
1X
0^
b10111011101110110010001000100010 _
1a
1b
1i
#520000
0!
0B
0X
#525000
1!
1*
0-
0.
0/
11
b10111011101110110010001000110010 3
16
b10111011101110110010001000100010 ;
b10111011101110110010001000110010 <
1B
b11 I
b10111011101110110010001000100010 O
b10111011101110110010001000110010 W
1X
1^
0a
0b
0i
#530000
0!
0B
0X
#535000
1!
01
02
06
07
19
1:
1B
b100 I
1X
0Z
0[
1]
b11 d
b100000100 l
b10111011101110110010001000110010 m
b1000001 o
#540000
0!
0B
0X
#545000
1!
b111111111100 (
1)
b100001000 0
12
17
09
0:
b10 =
1B
b1 I
b10 N
b10 P
b111111111100 U
b100001000 V
1X
1Z
1[
0]
b0 d
#550000
0!
0B
0X
#555000
1!
0)
0*
b11001100110011000011001100110011 +
1-
1.
1/
1B
b10 I
1X
0^
b11001100110011000011001100110011 _
1a
1b
1i
#560000
0!
0B
0X
#565000
1!
1*
0-
0.
0/
11
b11001100110011000011001101000011 3
16
b11001100110011000011001100110011 ;
b11001100110011000011001101000011 <
1B
b11 I
b11001100110011000011001100110011 O
b11001100110011000011001101000011 W
1X
1^
0a
0b
0i
#570000
0!
0B
0X
#575000
1!
01
02
06
07
19
1:
1B
b100 I
1X
0Z
0[
1]
b11 d
b100001000 l
b11001100110011000011001101000011 m
b1000010 o
#580000
0!
0B
0X
#585000
1!
b1000000000000 (
1)
b100001100 0
12
17
09
0:
b11 =
1B
b1 I
b11 N
b11 P
b1000000000000 U
b100001100 V
1X
1Z
1[
0]
b0 d
#590000
0!
0B
0X
#595000
1!
0)
0*
b0 +
b10 ,
1-
1.
1/
1B
b10 I
1X
0^
b0 _
b10 `
1a
1b
1i
#600000
0!
0B
0X
#605000
1!
1*
b0 ,
0-
0.
0/
b10000 3
b0 ;
b10000 <
1B
b101 I
b0 O
1Q
b10000 W
1X
1^
b0 `
0a
0b
0i
#610000
0!
0B
0X
#615000
1!
1>
1?
1B
b0 I
1S
1T
1X
#620000
0!
0B
0X
#625000
1!
b111111110100 (
b100000000 0
b0 =
0>
0?
b100000 @
1B
b0 N
b0 P
0Q
0S
0T
b111111110100 U
b100000000 V
1X
#630000
0!
1#
b1000000000 $
b111111110100 %
b100 &
b100000 '
0B
1D
b1000000000 E
b111111110100 F
b100000 H
0X
#635000
1!
b1000000000 (
1)
b111111110100 0
b100000 3
b100000 <
1B
b1 I
b1000000000 J
b111111110100 K
b100000 M
b1000000000 U
b111111110100 V
b100000 W
1X
#640000
0!
0#
0B
0D
0X
#645000
1!
0)
0*
b10001000100011010101010101010 +
1-
1.
1/
1B
b10 I
1X
0^
b10001000100011010101010101010 _
1a
1b
1i
#650000
0!
0B
0X
#655000
1!
1*
0-
0.
0/
11
b10001000100011010101011001010 3
16
b10001000100011010101010101010 ;
b10001000100011010101011001010 <
1B
b11 I
b10001000100011010101010101010 O
b10001000100011010101011001010 W
1X
1^
0a
0b
0i
#660000
0!
0B
0X
#665000
1!
01
02
06
07
19
1:
1B
b100 I
1X
0Z
0[
1]
b11 d
b111111110100 l
b10001000100011010101011001010 m
b1111111101 o
#670000
0!
0B
0X
#675000
1!
b1000000100 (
1)
b111111111000 0
12
17
09
0:
b1 =
1B
b1 I
b1 N
b1 P
b1000000100 U
b111111111000 V
1X
1Z
1[
0]
b0 d
#680000
0!
0B
0X
#685000
1!
0)
0*
b100010001000101011101110111011 +
1-
1.
1/
1B
b10 I
1X
0^
b100010001000101011101110111011 _
1a
1b
1i
#690000
0!
0B
0X
#695000
1!
1*
0-
0.
0/
11
b100010001000101011101111011011 3
16
b100010001000101011101110111011 ;
b100010001000101011101111011011 <
1B
b11 I
b100010001000101011101110111011 O
b100010001000101011101111011011 W
1X
1^
0a
0b
0i
#700000
0!
0B
0X
#705000
1!
01
02
06
07
19
1:
1B
b100 I
1X
0Z
0[
1]
b11 d
b111111111000 l
b100010001000101011101111011011 m
b1111111110 o
#710000
0!
0B
0X
#715000
1!
b1000001000 (
1)
b111111111100 0
12
17
09
0:
b10 =
1B
b1 I
b10 N
b10 P
b1000001000 U
b111111111100 V
1X
1Z
1[
0]
b0 d
#720000
0!
0B
0X
#725000
1!
0)
0*
b110011001100111100110011001100 +
1-
1.
1/
1B
b10 I
1X
0^
b110011001100111100110011001100 _
1a
1b
1i
#730000
0!
0B
0X
#735000
1!
1*
0-
0.
0/
11
b110011001100111100110011101100 3
16
b110011001100111100110011001100 ;
b110011001100111100110011101100 <
1B
b11 I
b110011001100111100110011001100 O
b110011001100111100110011101100 W
1X
1^
0a
0b
0i
#740000
0!
0B
0X
#745000
1!
01
02
06
07
19
1:
1B
b100 I
1X
0Z
0[
1]
b11 d
b111111111100 l
b110011001100111100110011101100 m
b1111111111 o
#750000
0!
0B
0X
#755000
1!
b1000001100 (
1)
b1000000000000 0
12
17
09
0:
b11 =
1B
b1 I
b11 N
b11 P
b1000001100 U
b1000000000000 V
1X
1Z
1[
0]
b0 d
#760000
0!
0B
0X
#765000
1!
0)
0*
b1000100010001001101110111011101 +
1-
1.
1/
1B
b10 I
1X
0^
b1000100010001001101110111011101 _
1a
1b
1i
#770000
0!
0B
0X
#775000
1!
1*
0-
0.
0/
11
b1000100010001001101110111111101 3
16
b1000100010001001101110111011101 ;
b1000100010001001101110111111101 <
1B
b11 I
b1000100010001001101110111011101 O
b1000100010001001101110111111101 W
1X
1^
0a
0b
0i
#780000
0!
0B
0X
#785000
1!
01
02
06
07
b10 8
19
1:
1B
b100 I
1X
0Z
0[
b10 \
1]
b11 d
#790000
0!
0B
0X
#795000
1!
12
17
b0 8
09
0:
1B
b101 I
1R
1X
1Z
1[
b0 \
0]
b0 d
#800000
0!
0B
0X
#805000
1!
1>
1?
1B
b0 I
1S
1T
1X
#810000
0!
0B
0X
#815000
1!
b1000000000 (
b111111110100 0
b0 =
0>
0?
b101001 @
1B
b0 N
b0 P
0R
0S
0T
b1000000000 U
b111111110100 V
1X
#820000
0!
1#
b1100100000 $
b10100000000 %
b100 &
b0 '
0B
1D
b1100100000 E
b10100000000 F
b0 H
0X
#825000
1!
b1100100000 (
1)
b10100000000 0
b1000100010001001101110111011101 3
b1000100010001001101110111011101 <
1B
b1 I
b1100100000 J
b10100000000 K
b0 M
b1100100000 U
b10100000000 V
b1000100010001001101110111011101 W
1X
#830000
0!
0#
0B
0D
0X
#835000
1!
0)
0*
b1010101010101011010101010101010 +
1-
1.
1/
1B
b10 I
1X
0^
b1010101010101011010101010101010 _
1a
1b
1i
#840000
0!
0B
0X
#845000
1!
1*
0-
0.
0/
11
b1010101010101011010101010101010 3
16
b1010101010101011010101010101010 ;
b1010101010101011010101010101010 <
1B
b11 I
b1010101010101011010101010101010 O
b1010101010101011010101010101010 W
1X
1^
0a
0b
0i
#850000
0!
0B
0X
#855000
1!
01
02
06
07
19
1:
1B
b100 I
1X
0Z
0[
1]
b11 d
b10100000000 l
b1010101010101011010101010101010 m
b101000000 o
#860000
0!
0B
0X
#865000
1!
b1100100100 (
1)
b10100000100 0
12
17
09
0:
b1 =
1B
b1 I
b1 N
b1 P
b1100100100 U
b10100000100 V
1X
1Z
1[
0]
b0 d
#870000
0!
0B
0X
#875000
1!
0)
0*
b1100110011001101011101110111011 +
1-
1.
1/
1B
b10 I
1X
0^
b1100110011001101011101110111011 _
1a
1b
1i
#880000
0!
0B
0X
#885000
1!
1*
0-
0.
0/
11
b1100110011001101011101110111011 3
16
b1100110011001101011101110111011 ;
b1100110011001101011101110111011 <
1B
b11 I
b1100110011001101011101110111011 O
b1100110011001101011101110111011 W
1X
1^
0a
0b
0i
#890000
0!
0B
0X
#895000
1!
01
02
06
07
19
1:
1B
b100 I
1X
0Z
0[
1]
b11 d
b10100000100 l
b1100110011001101011101110111011 m
b101000001 o
#900000
0!
0B
0X
#905000
1!
b1100101000 (
1)
b10100001000 0
12
17
09
0:
b10 =
1B
b1 I
b10 N
b10 P
b1100101000 U
b10100001000 V
1X
1Z
1[
0]
b0 d
#910000
0!
0B
0X
#915000
1!
0)
0*
b1110111011101111100110011001100 +
1-
1.
1/
1B
b10 I
1X
0^
b1110111011101111100110011001100 _
1a
1b
1i
#920000
0!
0B
0X
#925000
1!
1*
0-
0.
0/
11
b1110111011101111100110011001100 3
16
b1110111011101111100110011001100 ;
b1110111011101111100110011001100 <
1B
b11 I
b1110111011101111100110011001100 O
b1110111011101111100110011001100 W
1X
1^
0a
0b
0i
#930000
0!
0B
0X
#935000
1!
01
02
06
07
19
1:
1B
b100 I
1X
0Z
0[
1]
b11 d
b10100001000 l
b1110111011101111100110011001100 m
b101000010 o
#940000
0!
0B
0X
#945000
1!
b1100101100 (
1)
b10100001100 0
12
17
09
0:
b11 =
1B
b1 I
b11 N
b11 P
b1100101100 U
b10100001100 V
1X
1Z
1[
0]
b0 d
#950000
0!
0B
0X
#955000
1!
0)
0*
b10001000100010001101110111011101 +
1-
1.
1/
1B
b10 I
1X
0^
b10001000100010001101110111011101 _
1a
1b
1i
#960000
0!
0B
0X
#965000
1!
1*
0-
0.
0/
11
b10001000100010001101110111011101 3
16
b10001000100010001101110111011101 ;
b10001000100010001101110111011101 <
1B
b11 I
b10001000100010001101110111011101 O
b10001000100010001101110111011101 W
1X
1^
0a
0b
0i
#970000
0!
0B
0X
#975000
1!
01
02
06
07
19
1:
1B
b100 I
1X
0Z
0[
1]
b11 d
b10100001100 l
b10001000100010001101110111011101 m
b101000011 o
#980000
0!
0B
0X
#985000
1!
12
17
09
0:
b100 =
1B
b101 I
b100 P
1X
1Z
1[
0]
b0 d
#990000
0!
0B
0X
#995000
1!
1>
1B
b0 I
1S
1X
#1000000
0!
0B
0X
#1005000
1!
b110010 @
1B
1X
